7 Chapter 9 — Some useful tools in R | _main.knit
…
7.2 Using a for loop for data transformation

For the Winter_hours_gaps dataset, write a for loop to convert all temperatures (Temp column) to degrees Fahrenheit

Winters_for <- Winters_hours_gaps
for (i in 1:nrow(Winters_for)) {
  Winters_for$Temp[i] <- (Winters_for$Temp[i] * 9/5) + 32
}
Winters_for <- as_tibble(Winters_for)
Winters_for

## # A tibble: 6,074 × 6
##     Year Month   Day  Hour Temp_gaps  Temp
##    <int> <int> <int> <int>     <dbl> <dbl>
##  1  2008     3     3    10      15.1  59.2
##  2  2008     3     3    11      17.2  62.9
##  3  2008     3     3    12      18.7  65.7
##  4  2008     3     3    13      18.7  65.7
##  5  2008     3     3    14      18.8  65.9
##  6  2008     3     3    15      19.5  67.1
##  7  2008     3     3    16      19.3  66.8
##  8  2008     3     3    17      17.7  63.9
##  9  2008     3     3    18      15.4  59.7
## 10  2008     3     3    19      12.7  54.9
## # ℹ 6,064 more rows

7.3 Using apply-family functions

Execute the same operation with a function from the apply family

Winters_apply <- Winters_hours_gaps
Winters_apply$Temp <- sapply(Winters_apply$Temp, function(x) (x * 9/5) + 32)
Winters_apply <- as_tibble(Winters_apply)
Winters_apply

## # A tibble: 6,074 × 6
##     Year Month   Day  Hour Temp_gaps  Temp
##    <int> <int> <int> <int>     <dbl> <dbl>
##  1  2008     3     3    10      15.1  59.2
##  2  2008     3     3    11      17.2  62.9
##  3  2008     3     3    12      18.7  65.7
##  4  2008     3     3    13      18.7  65.7
##  5  2008     3     3    14      18.8  65.9
##  6  2008     3     3    15      19.5  67.1
##  7  2008     3     3    16      19.3  66.8
##  8  2008     3     3    17      17.7  63.9
##  9  2008     3     3    18      15.4  59.7
## 10  2008     3     3    19      12.7  54.9
## # ℹ 6,064 more rows

7.4 Vectorized operations with tidyverse

Now use the tidyverse function mutate to achieve the same outcome

Winters_mutate <- Winters_hours_gaps %>%
  mutate(Temp = (Temp * 9/5) + 32)
Winters_mutate <- as_tibble(Winters_mutate)
Winters_mutate

## # A tibble: 6,074 × 6
##     Year Month   Day  Hour Temp_gaps  Temp
##    <int> <int> <int> <int>     <dbl> <dbl>
##  1  2008     3     3    10      15.1  59.2
##  2  2008     3     3    11      17.2  62.9
##  3  2008     3     3    12      18.7  65.7
##  4  2008     3     3    13      18.7  65.7
##  5  2008     3     3    14      18.8  65.9
##  6  2008     3     3    15      19.5  67.1
##  7  2008     3     3    16      19.3  66.8
##  8  2008     3     3    17      17.7  63.9
##  9  2008     3     3    18      15.4  59.7
## 10  2008     3     3    19      12.7  54.9
## # ℹ 6,064 more rows
