Chapter 11 — Filling gaps in temperature records | _main.knit
…
Identifying nearby weather stations

Create a list of the 25 closest weather stations using the handle_gsod function

station_list <- handle_gsod(
  action = "list_stations",
  location = c(9.283, 47.600),
  time_interval = c(1990, 2024)
)

station_list[1:25,]

## # A tibble: 25 × 10
##    chillR_code STATION.NAME    CTRY    Lat  Long    BEGIN      END Distance Overlap_years
##    <chr>       <chr>           <chr> <dbl> <dbl>    <int>    <int>    <dbl>         <dbl>
##  1 06621099999 GUETTINGEN      CH     47.6  9.28 19901101 20250824     0            34.2 
##  2 06842099999 SITTERDORF      CH     47.5  9.27 20080122 20190118     9.32         11.0 
##  3 06678099999 BISCHOFSZELL    CH     47.5  9.23 20150818 20250824    11.8           9.37
##  4 10929099999 KONSTANZ        GM     47.7  9.18 19360102 20250611    11.9          35   
##  5 10934099999 FRIEDRICHSHAFEN GM     47.6  9.48 19590801 19780126    16.0           0   
##  6 10935099999 FRIEDRICHSHAFEN GM     47.7  9.51 19290801 20250824    18.8          35   
##  7 10935399999 FRIEDRICHSHAFEN GM     47.7  9.52 19880105 19881011    19.1           0   
##  8 06681099999 ST. GALLEN      CH     47.4  9.4  19811101 20250824    20.6          35   
##  9 06623099999 SALEN-REUTENEN  CH     47.6  9.02 20110124 20250824    20.7          13.9 
## 10 06671099999 STECKBORN       CH     47.7  8.98 20120209 20250824    23.7          12.9 
## # ℹ 15 more rows
## # ℹ 1 more variable: Perc_interval_covered <dbl>
…
